{
    "defaultSeverity": "error",
    "extend": [
        "tslint:recommended"
    ],
    "jsRules":{},
    "rules":{
        "no-empty": [true],
        "trailing-comma":[false]
    },
    "rulesDirectory":[]
}